<svg width="30" height="30" viewBox="0 0 30 30" fill="none" xmlns="http://www.w3.org/2000/svg">
<rect width="30" height="30" rx="15" fill="white"/>
<path d="M22.7588 15.2588L11.5088 21.754L11.5088 8.7636L22.7588 15.2588Z" fill="#0A0402"/>
</svg>
